<?xml version="1.0" encoding="utf-8"?>
<!-- Generator: Adobe Illustrator 16.0.0, SVG Export Plug-In . SVG Version: 6.00 Build 0)  -->
<!DOCTYPE svg PUBLIC "-//W3C//DTD SVG 1.1//EN" "http://www.w3.org/Graphics/SVG/1.1/DTD/svg11.dtd">
<svg version="1.1" id="Layer_1" xmlns="http://www.w3.org/2000/svg" xmlns:xlink="http://www.w3.org/1999/xlink" x="0px" y="0px"
	 width="960px" height="100px" viewBox="0 0 960 100" enable-background="new 0 0 960 100" xml:space="preserve">
<polyline fill="#E31936" stroke="#FFFFFF" stroke-miterlimit="10" points="146.642,1.152 148.82,59.704 151.322,1.15 "/>
<polyline fill="#E31936" stroke="#FFFFFF" stroke-miterlimit="10" points="136.516,1.156 139.208,65.217 141.628,1.154 "/>
<polyline fill="#E31936" stroke="#FFFFFF" stroke-miterlimit="10" points="119.767,1.162 121.154,84.208 123.324,1.161 "/>
<polyline fill="#E31936" stroke="#FFFFFF" stroke-miterlimit="10" points="109.954,1.166 112.154,70.884 114.67,1.164 "/>
<polyline fill="#E31936" stroke="#FFFFFF" stroke-miterlimit="10" points="127.6,1.159 129.487,75.046 131.512,1.158 "/>
<polyline fill="#E31936" stroke="#FFFFFF" stroke-miterlimit="10" points="197.801,1.208 198.154,2.604 198.416,1.208 "/>
<polyline fill="#E31936" stroke="#FFFFFF" stroke-miterlimit="10" points="207.936,1.128 208.753,3.826 209.479,1.127 "/>
<polyline fill="#E31936" stroke="#FFFFFF" stroke-miterlimit="10" points="187.006,1.136 189.401,9.279 189.922,1.135 "/>
<polyline fill="#E31936" stroke="#FFFFFF" stroke-miterlimit="10" points="166.979,1.144 168.118,18.85 169.732,1.143 "/>
<polyline fill="#E31936" stroke="#FFFFFF" stroke-miterlimit="10" points="177.21,1.208 177.487,2.612 177.666,1.208 "/>
<polyline fill="#E31936" stroke="#FFFFFF" stroke-miterlimit="10" points="156.439,1.147 158.154,39.418 160.36,1.146 "/>
<polyline fill="#E31936" stroke="#FFFFFF" stroke-miterlimit="10" points="42.131,1.192 43.487,55.993 45.043,1.19 "/>
<polyline fill="#E31936" stroke="#FFFFFF" stroke-miterlimit="10" points="32.824,1.196 34.82,51.293 37.257,1.194 "/>
<polyline fill="#E31936" stroke="#FFFFFF" stroke-miterlimit="10" points="24.317,1.199 25.487,64.652 27.468,1.198 "/>
<polyline fill="#E31936" stroke="#FFFFFF" stroke-miterlimit="10" points="5.965,1.206 9.487,47.582 10.45,1.204 "/>
<polyline fill="#E31936" stroke="#FFFFFF" stroke-miterlimit="10" points="14.402,1.203 16.487,77.27 19.089,1.201 "/>
<polyline fill="#E31936" stroke="#FFFFFF" stroke-miterlimit="10" points="72.372,1.18 74.3,19.042 75.497,1.179 "/>
<polyline fill="#E31936" stroke="#FFFFFF" stroke-miterlimit="10" points="81.099,1.177 82.361,19.21 85.343,1.175 "/>
<polyline fill="#E31936" stroke="#FFFFFF" stroke-miterlimit="10" points="51.177,1.188 53.443,38.754 54.454,1.187 "/>
<polyline fill="#E31936" stroke="#FFFFFF" stroke-miterlimit="10" points="60.314,1.185 62.435,33.55 64.081,1.184 "/>
<polyline fill="#E31936" stroke="#FFFFFF" stroke-miterlimit="10" points="404.531,1.052 405.16,9.778 406.191,1.052 "/>
<polyline fill="#E31936" stroke="#FFFFFF" stroke-miterlimit="10" points="374.714,1.063 375.154,56.983 378.019,1.062 "/>
<polyline fill="#E31936" stroke="#FFFFFF" stroke-miterlimit="10" points="348.012,1.074 349.938,63.419 352.129,1.072 "/>
<polyline fill="#E31936" stroke="#FFFFFF" stroke-miterlimit="10" points="216.269,1.208 216.732,2.597 217.129,1.208 "/>
<polyline fill="#E31936" stroke="#FFFFFF" stroke-miterlimit="10" points="395.572,1.055 397.065,31.811 398.688,1.054 "/>
<polyline fill="#E31936" stroke="#FFFFFF" stroke-miterlimit="10" points="356.924,1.07 358.486,77.022 361.269,1.068 "/>
<polyline fill="#E31936" stroke="#FFFFFF" stroke-miterlimit="10" points="384.089,1.06 385.486,46.84 388.766,1.058 "/>
<polyline fill="#E31936" stroke="#FFFFFF" stroke-miterlimit="10" points="450.32,1.034 452.154,79.743 454.72,1.032 "/>
<polyline fill="#E31936" stroke="#FFFFFF" stroke-miterlimit="10" points="461.736,1.029 462.77,17.875 465.592,1.028 "/>
<polyline fill="#E31936" stroke="#FFFFFF" stroke-miterlimit="10" points="440.844,1.196 444.486,74.395 446.104,1.042 "/>
<polyline fill="#E31936" stroke="#FFFFFF" stroke-miterlimit="10" points="366.005,1.067 366.82,67.868 370.103,1.065 "/>
<polyline fill="#E31936" stroke="#FFFFFF" stroke-miterlimit="10" points="262.191,1.107 263.154,70.837 265.981,1.105 "/>
<polyline fill="#E31936" stroke="#FFFFFF" stroke-miterlimit="10" points="337.55,1.078 339.475,49.818 342.058,1.076 "/>
<polyline fill="#E31936" stroke="#FFFFFF" stroke-miterlimit="10" points="289.236,1.096 289.607,4.595 290.431,1.096 "/>
<polyline fill="#E31936" stroke="#FFFFFF" stroke-miterlimit="10" points="254.597,1.109 255.82,6.762 256.09,1.109 "/>
<polyline fill="#E31936" stroke="#FFFFFF" stroke-miterlimit="10" points="242.925,1.196 246.154,6.855 247.783,1.066 "/>
<polyline fill="#E31936" stroke="#FFFFFF" stroke-miterlimit="10" points="319.048,1.085 320.063,16.919 321.712,1.083 "/>
<polyline fill="#E31936" stroke="#FFFFFF" stroke-miterlimit="10" points="297.172,1.093 297.487,12.944 300.337,1.092 "/>
<polyline fill="#E31936" stroke="#FFFFFF" stroke-miterlimit="10" points="327.063,1.082 328.502,23.266 330.584,1.081 "/>
<polyline fill="#E31936" stroke="#FFFFFF" stroke-miterlimit="10" points="309.543,1.089 311.511,31.81 313.478,1.087 "/>
<polyline fill="#E31936" stroke="#FFFFFF" stroke-miterlimit="10" points="470.158,1.027 473.137,31.811 475.11,1.025 "/>
<polyline fill="#E31936" stroke="#FFFFFF" stroke-miterlimit="10" points="10.458,1.204 12.154,82.847 14.392,1.203 "/>
<polyline fill="#E31936" stroke="#FFFFFF" stroke-miterlimit="10" points="169.755,1.143 172.089,26.742 177.135,1.14 "/>
<polyline fill="#E31936" stroke="#FFFFFF" stroke-miterlimit="10" points="352.133,1.072 355.154,87.053 356.922,1.07 "/>
<polyline fill="#E31936" stroke="#FFFFFF" stroke-miterlimit="10" points="330.597,1.081 335.486,53.159 337.545,1.078 "/>
<polyline fill="#E31936" stroke="#FFFFFF" stroke-miterlimit="10" points="342.064,1.076 345.82,71.962 348.009,1.074 "/>
<polyline fill="#E31936" stroke="#FFFFFF" stroke-miterlimit="10" points="378.023,1.062 381.82,75.179 384.086,1.06 "/>
<polyline fill="#E31936" stroke="#FFFFFF" stroke-miterlimit="10" points="265.988,1.105 269.154,79.158 272.262,1.103 "/>
<polyline fill="#E31936" stroke="#FFFFFF" stroke-miterlimit="10" points="361.272,1.068 364.82,97.938 366.004,1.067 "/>
<polyline fill="#E31936" stroke="#FFFFFF" stroke-miterlimit="10" points="284.986,1.098 288.154,11.126 289.219,1.096 "/>
<polyline fill="#E31936" stroke="#FFFFFF" stroke-miterlimit="10" points="321.727,1.083 325.012,32.608 327.055,1.082 "/>
<polyline fill="#E31936" stroke="#FFFFFF" stroke-miterlimit="10" points="290.469,1.096 296.487,26.695 297.168,1.093 "/>
<polyline fill="#E31936" stroke="#FFFFFF" stroke-miterlimit="10" points="300.374,1.092 307.607,31.171 309.534,1.089 "/>
<polyline fill="#E31936" stroke="#FFFFFF" stroke-miterlimit="10" points="313.487,1.087 316.264,44.439 319.039,1.085 "/>
<polyline fill="#E31936" stroke="#FFFFFF" stroke-miterlimit="10" points="370.107,1.065 374.076,81.835 374.713,1.063 "/>
<polyline fill="#E31936" stroke="#FFFFFF" stroke-miterlimit="10" points="475.111,1.025 477.895,44.439 480.504,3.74 
	480.298,1.022 "/>
<polyline fill="#E31936" stroke="#FFFFFF" stroke-miterlimit="10" points="465.597,1.028 468.486,18.277 470.156,1.027 "/>
<polyline fill="#E31936" stroke="#FFFFFF" stroke-miterlimit="10" points="454.721,1.032 457.154,75.673 461.734,1.029 "/>
<polyline fill="#E31936" stroke="#FFFFFF" stroke-miterlimit="10" points="388.771,1.058 392.82,57.612 395.568,1.055 "/>
<polyline fill="#E31936" stroke="#FFFFFF" stroke-miterlimit="10" points="398.691,1.054 401.154,47.717 404.525,1.052 "/>
<polyline fill="#E31936" stroke="#FFFFFF" stroke-miterlimit="10" points="406.199,1.052 409.496,28.958 415.691,1.047 "/>
<polyline fill="#E31936" stroke="#FFFFFF" stroke-miterlimit="10" points="415.959,1.047 420.154,18.772 423.154,1.208 "/>
<polyline fill="#E31936" stroke="#FFFFFF" stroke-miterlimit="10" points="446.104,1.036 448.154,93.979 450.319,1.034 "/>
<polyline fill="#E31936" stroke="#FFFFFF" stroke-miterlimit="10" points="160.375,1.146 163.487,55.139 166.962,1.144 "/>
<polyline fill="#E31936" stroke="#FFFFFF" stroke-miterlimit="10" points="85.396,1.175 87.487,13.825 90.452,1.173 "/>
<polyline fill="#E31936" stroke="#FFFFFF" stroke-miterlimit="10" points="75.519,1.179 78.238,41.739 81.076,1.177 "/>
<polyline fill="#E31936" stroke="#FFFFFF" stroke-miterlimit="10" points="256.099,1.109 260.82,100.165 262.188,1.107 "/>
<polyline fill="#E31936" stroke="#FFFFFF" stroke-miterlimit="10" points="105.491,1.168 107.487,79.044 109.944,1.166 "/>
<polyline fill="#E31936" stroke="#FFFFFF" stroke-miterlimit="10" points="114.681,1.164 118.154,97.42 119.762,1.162 "/>
<polyline fill="#E31936" stroke="#FFFFFF" stroke-miterlimit="10" points="45.053,1.19 47.007,69.968 51.156,1.188 "/>
<polyline fill="#E31936" stroke="#FFFFFF" stroke-miterlimit="10" points="27.479,1.198 29.82,76.168 32.81,1.196 "/>
<polyline fill="#E31936" stroke="#FFFFFF" stroke-miterlimit="10" points="54.463,1.187 56.16,64.284 60.292,1.185 "/>
<polyline fill="#E31936" stroke="#FFFFFF" stroke-miterlimit="10" points="37.274,1.194 40.487,67.262 42.122,1.192 "/>
<polyline fill="#E31936" stroke="#FFFFFF" stroke-miterlimit="10" points="123.332,1.161 125.487,83.584 127.592,1.159 "/>
<polyline fill="#E31936" stroke="#FFFFFF" stroke-miterlimit="10" points="64.098,1.184 66.737,53.052 72.336,1.18 "/>
<polyline fill="#E31936" stroke="#FFFFFF" stroke-miterlimit="10" points="209.539,1.127 212.487,12.093 216.142,1.125 "/>
<polyline fill="#E31936" stroke="#FFFFFF" stroke-miterlimit="10" points="198.488,1.132 202.076,20.237 207.868,1.128 "/>
<polyline fill="#E31936" stroke="#FFFFFF" stroke-miterlimit="10" points="189.938,1.135 191.509,25.687 197.705,1.132 "/>
<polyline fill="#E31936" stroke="#FFFFFF" stroke-miterlimit="10" points="217.238,1.124 219.487,9 221.462,1.123 "/>
<polyline fill="#E31936" stroke="#FFFFFF" stroke-miterlimit="10" points="247.812,1.112 251.638,14.596 254.557,1.109 "/>
<polyline fill="#E31936" stroke="#FFFFFF" stroke-miterlimit="10" points="151.334,1.15 153.82,59.345 156.428,1.147 "/>
<polyline fill="#E31936" stroke="#FFFFFF" stroke-miterlimit="10" points="177.714,1.139 180.493,23.047 186.935,1.136 "/>
<polyline fill="#E31936" stroke="#FFFFFF" stroke-miterlimit="10" points="141.638,1.154 144.154,67.756 146.632,1.152 "/>
<polyline fill="#E31936" stroke="#FFFFFF" stroke-miterlimit="10" points="131.52,1.158 133.487,72.951 136.504,1.156 "/>
<polyline fill="#E31936" stroke="#FFFFFF" stroke-miterlimit="10" points="19.102,1.201 22.487,100.165 24.311,1.199 "/>
<polyline fill="#E31936" stroke="#FFFFFF" stroke-miterlimit="10" points="620.97,1 623.142,59.37 625.636,1 "/>
<polyline fill="#E31936" stroke="#FFFFFF" stroke-miterlimit="10" points="610.846,1 613.529,64.883 615.941,1 "/>
<polyline fill="#E31936" stroke="#FFFFFF" stroke-miterlimit="10" points="594.091,1 595.475,83.873 597.642,1 "/>
<polyline fill="#E31936" stroke="#FFFFFF" stroke-miterlimit="10" points="584.28,1 586.475,70.549 588.985,1 "/>
<polyline fill="#E31936" stroke="#FFFFFF" stroke-miterlimit="10" points="601.926,1 603.809,74.711 605.828,1 "/>
<polyline fill="#E31936" stroke="#FFFFFF" stroke-miterlimit="10" points="682.319,1 683.074,3.493 683.744,1 "/>
<polyline fill="#E31936" stroke="#FFFFFF" stroke-miterlimit="10" points="661.385,1 663.723,8.946 664.23,1 "/>
<polyline fill="#E31936" stroke="#FFFFFF" stroke-miterlimit="10" points="641.312,1 642.439,18.516 644.035,1 "/>
<polyline fill="#E31936" stroke="#FFFFFF" stroke-miterlimit="10" points="630.77,1 632.475,39.084 634.671,1 "/>
<polyline fill="#E31936" stroke="#FFFFFF" stroke-miterlimit="10" points="516.455,1 517.809,55.659 519.361,1 "/>
<polyline fill="#E31936" stroke="#FFFFFF" stroke-miterlimit="10" points="507.15,1 509.142,50.959 511.571,1 "/>
<polyline fill="#E31936" stroke="#FFFFFF" stroke-miterlimit="10" points="498.641,1 499.809,64.317 501.785,1 "/>
<polyline fill="#E31936" stroke="#FFFFFF" stroke-miterlimit="10" points="480.679,1.022 480.504,3.74 483.809,47.248 484.769,1 "/>
<polyline fill="#E31936" stroke="#FFFFFF" stroke-miterlimit="10" points="488.727,1 490.809,76.935 493.405,1 "/>
<polyline fill="#E31936" stroke="#FFFFFF" stroke-miterlimit="10" points="546.709,1 548.621,18.708 549.808,1 "/>
<polyline fill="#E31936" stroke="#FFFFFF" stroke-miterlimit="10" points="555.431,1 556.682,18.876 559.638,1 "/>
<polyline fill="#E31936" stroke="#FFFFFF" stroke-miterlimit="10" points="525.506,1 527.764,38.419 528.771,1 "/>
<polyline fill="#E31936" stroke="#FFFFFF" stroke-miterlimit="10" points="534.646,1 536.756,33.216 538.395,1 "/>
<polyline fill="#E31936" stroke="#FFFFFF" stroke-miterlimit="10" points="878.872,1 879.481,9.444 880.479,1 "/>
<polyline fill="#E31936" stroke="#FFFFFF" stroke-miterlimit="10" points="849.037,1 849.476,56.649 852.326,1 "/>
<polyline fill="#E31936" stroke="#FFFFFF" stroke-miterlimit="10" points="822.342,1 824.259,63.086 826.441,1 "/>
<polyline fill="#E31936" stroke="#FFFFFF" stroke-miterlimit="10" points="869.907,1 871.387,31.477 872.994,1 "/>
<polyline fill="#E31936" stroke="#FFFFFF" stroke-miterlimit="10" points="831.251,1 832.808,76.688 835.58,1 "/>
<polyline fill="#E31936" stroke="#FFFFFF" stroke-miterlimit="10" points="858.418,1 859.808,46.507 863.067,1 "/>
<polyline fill="#E31936" stroke="#FFFFFF" stroke-miterlimit="10" points="924.648,1 926.476,79.41 929.031,1 "/>
<polyline fill="#E31936" stroke="#FFFFFF" stroke-miterlimit="10" points="936.076,1 937.091,17.54 939.862,1 "/>
<polyline fill="#E31936" stroke="#FFFFFF" stroke-miterlimit="10" points="915.172,1 918.808,74.06 920.418,1 "/>
<polyline fill="#E31936" stroke="#FFFFFF" stroke-miterlimit="10" points="840.33,1 841.142,67.535 844.41,1 "/>
<polyline fill="#E31936" stroke="#FFFFFF" stroke-miterlimit="10" points="736.516,1 737.476,70.502 740.293,1 "/>
<polyline fill="#E31936" stroke="#FFFFFF" stroke-miterlimit="10" points="811.881,1 813.796,49.484 816.365,1 "/>
<polyline fill="#E31936" stroke="#FFFFFF" stroke-miterlimit="10" points="763.582,1 763.929,4.261 764.696,1 "/>
<polyline fill="#E31936" stroke="#FFFFFF" stroke-miterlimit="10" points="728.967,1 730.142,6.428 730.4,1 "/>
<polyline fill="#E31936" stroke="#FFFFFF" stroke-miterlimit="10" points="717.325,1 720.476,6.521 722.029,1 "/>
<polyline fill="#E31936" stroke="#FFFFFF" stroke-miterlimit="10" points="793.385,1 794.384,16.585 796.008,1 "/>
<polyline fill="#E31936" stroke="#FFFFFF" stroke-miterlimit="10" points="771.5,1 771.809,12.61 774.601,1 "/>
<polyline fill="#E31936" stroke="#FFFFFF" stroke-miterlimit="10" points="801.4,1 802.823,22.932 804.882,1 "/>
<polyline fill="#E31936" stroke="#FFFFFF" stroke-miterlimit="10" points="783.881,1 785.832,31.476 787.783,1 "/>
<polyline fill="#E31936" stroke="#FFFFFF" stroke-miterlimit="10" points="944.51,1 947.458,31.477 949.412,1 "/>
<polyline fill="#E31936" stroke="#FFFFFF" stroke-miterlimit="10" points="484.782,1 486.475,82.513 488.709,1 "/>
<polyline fill="#E31936" stroke="#FFFFFF" stroke-miterlimit="10" points="644.094,1 646.41,26.408 651.418,1 "/>
<polyline fill="#E31936" stroke="#FFFFFF" stroke-miterlimit="10" points="826.463,1 829.476,86.719 831.237,1 "/>
<polyline fill="#E31936" stroke="#FFFFFF" stroke-miterlimit="10" points="804.941,1 809.808,52.826 811.856,1 "/>
<polyline fill="#E31936" stroke="#FFFFFF" stroke-miterlimit="10" points="816.399,1 820.142,71.628 822.322,1 "/>
<polyline fill="#E31936" stroke="#FFFFFF" stroke-miterlimit="10" points="852.358,1 856.142,74.844 858.398,1 "/>
<polyline fill="#E31936" stroke="#FFFFFF" stroke-miterlimit="10" points="740.318,1 743.476,78.825 746.574,1 "/>
<polyline fill="#E31936" stroke="#FFFFFF" stroke-miterlimit="10" points="835.604,1 839.142,97.604 840.322,1 "/>
<polyline fill="#E31936" stroke="#FFFFFF" stroke-miterlimit="10" points="759.382,1 762.476,10.792 763.515,1 "/>
<polyline fill="#E31936" stroke="#FFFFFF" stroke-miterlimit="10" points="796.074,1 799.333,32.274 801.359,1 "/>
<polyline fill="#E31936" stroke="#FFFFFF" stroke-miterlimit="10" points="764.846,1 770.809,26.361 771.482,1 "/>
<polyline fill="#E31936" stroke="#FFFFFF" stroke-miterlimit="10" points="774.754,1 781.929,30.837 783.84,1 "/>
<polyline fill="#E31936" stroke="#FFFFFF" stroke-miterlimit="10" points="787.824,1 790.585,44.105 793.345,1 "/>
<polyline fill="#E31936" stroke="#FFFFFF" stroke-miterlimit="10" points="844.441,1 848.397,81.5 849.032,1 "/>
<polyline fill="#E31936" stroke="#FFFFFF" stroke-miterlimit="10" points="949.452,1 952.216,44.105 954.98,1 "/>
<polyline fill="#E31936" stroke="#FFFFFF" stroke-miterlimit="10" points="939.969,1 942.808,17.943 944.448,1 "/>
<polyline fill="#E31936" stroke="#FFFFFF" stroke-miterlimit="10" points="929.052,1 931.476,75.339 936.037,1 "/>
<polyline fill="#E31936" stroke="#FFFFFF" stroke-miterlimit="10" points="863.112,1 867.142,57.279 869.876,1 "/>
<polyline fill="#E31936" stroke="#FFFFFF" stroke-miterlimit="10" points="873.027,1 875.476,47.384 878.826,1 "/>
<polyline fill="#E31936" stroke="#FFFFFF" stroke-miterlimit="10" points="880.554,1 883.817,28.624 889.949,1 "/>
<polyline fill="#E31936" stroke="#FFFFFF" stroke-miterlimit="10" points="890.348,1 894.476,18.438 897.454,1 "/>
<polyline fill="#E31936" stroke="#FFFFFF" stroke-miterlimit="10" points="920.432,1 922.476,93.646 924.634,1 "/>
<polyline fill="#E31936" stroke="#FFFFFF" stroke-miterlimit="10" points="634.707,1 637.809,54.806 641.271,1 "/>
<polyline fill="#E31936" stroke="#FFFFFF" stroke-miterlimit="10" points="559.743,1 561.809,13.491 564.735,1 "/>
<polyline fill="#E31936" stroke="#FFFFFF" stroke-miterlimit="10" points="549.851,1 552.56,41.405 555.387,1 "/>
<polyline fill="#E31936" stroke="#FFFFFF" stroke-miterlimit="10" points="730.431,1 735.142,99.83 736.507,1 "/>
<polyline fill="#E31936" stroke="#FFFFFF" stroke-miterlimit="10" points="579.816,1 581.809,78.71 584.261,1 "/>
<polyline fill="#E31936" stroke="#FFFFFF" stroke-miterlimit="10" points="589.008,1 592.475,97.087 594.08,1 "/>
<polyline fill="#E31936" stroke="#FFFFFF" stroke-miterlimit="10" points="519.379,1 521.328,69.634 525.468,1 "/>
<polyline fill="#E31936" stroke="#FFFFFF" stroke-miterlimit="10" points="501.805,1 504.142,75.833 507.125,1 "/>
<polyline fill="#E31936" stroke="#FFFFFF" stroke-miterlimit="10" points="528.788,1 530.481,63.952 534.604,1 "/>
<polyline fill="#E31936" stroke="#FFFFFF" stroke-miterlimit="10" points="511.603,1 514.809,66.927 516.439,1 "/>
<polyline fill="#E31936" stroke="#FFFFFF" stroke-miterlimit="10" points="597.658,1 599.809,83.249 601.909,1 "/>
<polyline fill="#E31936" stroke="#FFFFFF" stroke-miterlimit="10" points="538.427,1 541.059,52.719 546.641,1 "/>
<polyline fill="#E31936" stroke="#FFFFFF" stroke-miterlimit="10" points="683.915,1 686.809,11.759 690.394,1 "/>
<polyline fill="#E31936" stroke="#FFFFFF" stroke-miterlimit="10" points="672.847,1 676.396,19.903 682.127,1 "/>
<polyline fill="#E31936" stroke="#FFFFFF" stroke-miterlimit="10" points="664.271,1 665.83,25.353 671.975,1 "/>
<polyline fill="#E31936" stroke="#FFFFFF" stroke-miterlimit="10" points="691.619,1 693.809,8.666 695.73,1 "/>
<polyline fill="#E31936" stroke="#FFFFFF" stroke-miterlimit="10" points="722.195,1 725.959,14.261 728.829,1 "/>
<polyline fill="#E31936" stroke="#FFFFFF" stroke-miterlimit="10" points="625.663,1 628.142,59.011 630.74,1 "/>
<polyline fill="#E31936" stroke="#FFFFFF" stroke-miterlimit="10" points="652.06,1 654.814,22.713 661.197,1 "/>
<polyline fill="#E31936" stroke="#FFFFFF" stroke-miterlimit="10" points="615.966,1 618.475,67.423 620.946,1 "/>
<polyline fill="#E31936" stroke="#FFFFFF" stroke-miterlimit="10" points="605.846,1 607.809,72.616 610.818,1 "/>
<polyline fill="#E31936" stroke="#FFFFFF" stroke-miterlimit="10" points="493.428,1 496.809,99.83 498.629,1 "/>
</svg>
