<?xml version="1.0" encoding="utf-8"?>
<!-- Generator: Adobe Illustrator 16.0.0, SVG Export Plug-In . SVG Version: 6.00 Build 0)  -->
<!DOCTYPE svg PUBLIC "-//W3C//DTD SVG 1.1//EN" "http://www.w3.org/Graphics/SVG/1.1/DTD/svg11.dtd">
<svg version="1.1" id="Layer_1" xmlns="http://www.w3.org/2000/svg" xmlns:xlink="http://www.w3.org/1999/xlink" x="0px" y="0px"
	 width="960px" height="560px" viewBox="0 0 960 560" enable-background="new 0 0 960 560" xml:space="preserve">
<polyline display="none" fill="none" stroke="#000000" stroke-miterlimit="10" points="0,158.5 9.505,358.5 19.009,158.5 
	28.512,358.5 38.014,158.5 47.517,358.5 57.021,158.5 66.525,358.5 76.029,158.5 85.533,358.5 95.035,158.5 104.539,358.5 
	114.042,158.5 123.547,358.5 133.051,158.5 142.555,358.5 152.058,158.5 161.562,358.5 171.066,158.5 180.57,358.5 190.074,158.5 
	199.577,358.5 209.082,158.5 218.586,358.5 228.089,158.5 237.589,358.5 247.088,158.5 256.586,358.5 266.085,158.5 275.585,358.5 
	285.087,158.5 294.592,358.5 304.096,158.5 313.597,358.5 323.097,158.5 332.597,358.5 342.097,158.5 351.6,358.5 361.104,158.5 
	370.609,358.5 380.111,158.5 389.612,358.5 399.113,158.5 408.615,358.5 418.121,158.5 427.625,358.5 437.128,158.5 446.629,358.5 
	456.132,158.5 465.637,358.5 475.143,158.5 484.646,358.5 494.148,158.5 503.652,358.5 513.158,158.5 522.663,358.5 532.166,158.5 
	541.671,358.5 551.178,158.5 560.683,358.5 570.187,158.5 579.691,358.5 589.198,158.5 598.702,358.5 608.208,158.5 617.714,358.5 
	627.219,158.5 636.726,358.5 646.231,158.5 655.737,358.5 665.244,158.5 674.75,358.5 684.258,158.5 693.764,358.5 703.271,158.5 
	712.778,358.5 722.285,158.5 731.793,358.5 741.299,158.5 750.806,358.5 760.307,158.5 769.813,358.5 779.317,158.5 788.823,358.5 
	798.328,158.5 807.836,358.5 817.342,158.5 826.85,358.5 836.359,158.5 845.867,358.5 855.376,158.5 864.886,358.5 874.396,158.5 
	883.905,358.5 893.416,158.5 902.923,358.5 912.432,158.5 921.941,358.5 931.455,158.5 940.966,358.5 950.482,158.5 960,358.5 "/>
<rect x="821.5" y="560" display="none" fill="none" stroke="#000000" stroke-miterlimit="10" width="0" height="7"/>
<rect x="9" y="-10" display="none" width="950" height="285"/>
<g>
	<polygon fill="#E31936" points="292.333,433.666 297.36,275.155 287.956,275.15 	"/>
	<polygon fill="#E31936" points="273.108,448.521 277.969,275.145 267.701,275.14 	"/>
	<polygon fill="#E31936" points="237,499.697 241.357,275.126 234.216,275.123 	"/>
	<polygon fill="#E31936" points="219,463.791 224.053,275.117 214.581,275.112 	"/>
	<polygon fill="#E31936" points="253.667,475.008 257.731,275.135 249.877,275.13 	"/>
	<polygon fill="#E31936" points="391,279.796 391.668,275 390.102,275 	"/>
	<polygon fill="#E31936" points="412.199,283.089 413.77,275.216 410.428,275.214 	"/>
	<polygon fill="#E31936" points="373.494,297.784 374.567,275.195 368.563,275.192 	"/>
	<polygon fill="#E31936" points="330.928,323.574 334.203,275.174 328.616,275.171 	"/>
	<polygon fill="#E31936" points="349.667,279.817 350.12,275 348.962,275 	"/>
	<polygon fill="#E31936" points="311,379 315.442,275.165 307.548,275.161 	"/>
	<polygon fill="#E31936" points="81.667,423.666 84.799,275.045 78.937,275.042 	"/>
	<polygon fill="#E31936" points="64.333,411 69.241,275.037 60.311,275.032 	"/>
	<polygon fill="#E31936" points="45.667,447 49.652,275.026 43.314,275.023 	"/>
	<polygon fill="#E31936" points="13.667,401 15.608,275.009 6.566,275.004 	"/>
	<polygon fill="#E31936" points="27.667,481 32.896,275.018 23.476,275.013 	"/>
	<polygon fill="#E31936" points="143.292,324.091 145.73,275.076 139.364,275.073 	"/>
	<polygon fill="#E31936" points="159.414,324.545 165.483,275.087 156.845,275.082 	"/>
	<polygon fill="#E31936" points="175.667,276 191.667,276 205.667,276 205.674,275.357 175.596,275.467 	"/>
	<polygon fill="#E31936" points="101.578,377.209 103.618,275.055 97.004,275.051 	"/>
	<polygon fill="#E31936" points="119.561,363.187 122.888,275.064 115.277,275.061 	"/>
	<polygon fill="#E31936" points="805.014,299.127 807.092,275.42 803.742,275.419 	"/>
	<polygon fill="#E31936" points="745,426.334 750.739,275.391 744.117,275.388 	"/>
	<polygon fill="#E31936" points="694.566,443.678 698.957,275.364 690.71,275.36 	"/>
	<polygon fill="#E31936" points="428.157,279.777 429.169,275 426.976,275 	"/>
	<polygon fill="#E31936" points="788.823,358.5 792.076,275.413 785.828,275.41 	"/>
	<polygon fill="#E31936" points="711.666,480.334 717.237,275.374 708.537,275.369 	"/>
	<polygon fill="#E31936" points="765.666,399.001 772.234,275.402 762.863,275.397 	"/>
	<polygon fill="#E31936" points="899,487.668 904.134,275.471 895.331,275.466 	"/>
	<polygon fill="#E31936" points="920.231,320.945 925.886,275.482 918.161,275.479 	"/>
	<polygon fill="#E31936" points="15.608,275.009 23.476,275.013 19,55 	"/>
	<polygon fill="#E31936" points="857,276 867,276 876.381,276 883.666,473.251 886.899,275.587 855.261,275.758 	"/>
	<polygon fill="#E31936" points="826.333,277.001 826.609,275.431 826.074,275.431 	"/>
	<polygon fill="#E31936" points="728.333,455.668 734.907,275.383 726.699,275.379 	"/>
	<polygon fill="#E31936" points="521,463.666 526.67,275.274 519.069,275.271 	"/>
	<polygon fill="#E31936" points="673.643,407.026 678.82,275.354 669.781,275.349 	"/>
	<polygon fill="#E31936" points="573.908,285.16 575.629,275.3 573.131,275.299 	"/>
	<polygon fill="#E31936" points="506.333,290.999 506.89,275.264 503.806,275.263 	"/>
	<polygon fill="#E31936" points="437.667,276 449.667,276 464.333,276 480.542,276 487,291.25 490.315,275.381 437.616,275.541 	"/>
	<polygon fill="#E31936" points="539.223,276 553.667,276 564.618,276 564.666,275.544 539.216,275.656 	"/>
	<polygon fill="#E31936" points="634.818,318.371 638.146,275.333 632.772,275.33 	"/>
	<polygon fill="#E31936" points="589.667,307.658 595.44,275.311 589.028,275.307 	"/>
	<polygon fill="#E31936" points="651.695,335.473 655.886,275.342 648.803,275.338 	"/>
	<polygon fill="#E31936" points="617.714,358.498 621.667,275.324 613.761,275.32 	"/>
	<polygon fill="#E31936" points="334.203,275.174 348.962,275.182 338.871,206.189 	"/>
	<polygon fill="#E31936" points="698.957,275.364 708.537,275.369 705,43.667 	"/>
	<polygon fill="#E31936" points="655.886,275.342 669.781,275.349 665.666,135.001 	"/>
	<polygon fill="#E31936" points="678.82,275.354 690.71,275.36 686.333,84.334 	"/>
	<polygon fill="#E31936" points="750.739,275.391 762.863,275.397 758.333,75.667 	"/>
	<polygon fill="#E31936" points="526.67,275.274 539.216,275.281 533,64.939 	"/>
	<polygon fill="#E31936" points="717.237,275.374 726.699,275.379 724.333,14.334 	"/>
	<polygon fill="#E31936" points="564.666,275.294 573.131,275.299 571,248.272 	"/>
	<polygon fill="#E31936" points="638.146,275.333 648.803,275.338 644.716,190.382 	"/>
	<polygon fill="#E31936" points="575.629,275.3 589.028,275.307 587.667,206.317 	"/>
	<polygon fill="#E31936" points="595.44,275.311 613.761,275.32 609.907,194.254 	"/>
	<polygon fill="#E31936" points="621.667,275.324 632.772,275.33 627.219,158.499 	"/>
	<polygon fill="#E31936" points="734.907,275.383 744.117,275.388 742.845,57.729 	"/>
	<polygon fill="#E31936" points="950.482,158.5 944.916,275.492 956.05,275.498 	"/>
	<polygon fill="#E31936" points="931.666,229.001 925.886,275.482 935.004,275.487 	"/>
	<polygon fill="#E31936" points="944.916,275.492 935.004,275.487 940.966,358.5 	"/>
	<polygon fill="#E31936" points="904.134,275.471 918.161,275.479 909,74.334 	"/>
	<polygon fill="#E31936" points="772.234,275.402 785.828,275.41 780.333,123.001 	"/>
	<polygon fill="#E31936" points="792.076,275.413 803.742,275.419 797,149.667 	"/>
	<polygon fill="#E31936" points="807.092,275.42 826.074,275.431 813.685,200.219 	"/>
	<polygon fill="#E31936" points="835,227.667 826.609,275.431 855.261,275.446 841,275 	"/>
	<polygon fill="#E31936" points="886.899,275.462 895.331,275.466 891,25.001 	"/>
	<polygon fill="#E31936" points="315.442,275.165 328.616,275.171 321.667,129.667 	"/>
	<polygon fill="#E31936" points="165.483,275.087 175.596,275.092 169.667,240.999 	"/>
	<polygon fill="#E31936" points="145.73,275.076 156.845,275.082 151.169,165.778 	"/>
	<polygon fill="#E31936" points="506.89,275.264 519.069,275.271 516.333,8.334 	"/>
	<polygon fill="#E31936" points="205.674,275.107 214.581,275.112 209.667,65.25 	"/>
	<polygon fill="#E31936" points="224.053,275.117 234.216,275.123 231,15.729 	"/>
	<polygon fill="#E31936" points="84.799,275.045 97.004,275.051 88.706,89.708 	"/>
	<polygon fill="#E31936" points="49.652,275.026 60.311,275.032 54.333,73 	"/>
	<polygon fill="#E31936" points="103.618,275.055 115.277,275.061 107.013,105.02 	"/>
	<polygon fill="#E31936" points="69.241,275.037 78.937,275.042 75.667,97 	"/>
	<polygon fill="#E31936" points="241.357,275.126 249.877,275.13 245.667,53.015 	"/>
	<polygon fill="#E31936" points="122.888,275.064 139.364,275.073 128.166,135.291 	"/>
	<polygon fill="#E31936" points="413.77,275.216 426.976,275.223 419.667,245.666 	"/>
	<polygon fill="#E31936" points="391.668,275.204 410.428,275.214 398.844,223.719 	"/>
	<polygon fill="#E31936" points="374.567,275.195 390.102,275.204 377.71,209.033 	"/>
	<polygon fill="#E31936" points="429.169,275.224 437.616,275.229 433.667,254 	"/>
	<polygon fill="#E31936" points="490.315,275.256 503.806,275.263 497.968,238.922 	"/>
	<polygon fill="#E31936" points="297.36,275.155 307.548,275.161 302.333,118.333 	"/>
	<polygon fill="#E31936" points="350.12,275.183 368.563,275.192 355.678,216.146 	"/>
	<polygon fill="#E31936" points="277.969,275.145 287.956,275.15 283,95.667 	"/>
	<polygon fill="#E31936" points="257.731,275.135 267.701,275.14 261.667,81.67 	"/>
	<polygon fill="#E31936" points="32.896,275.018 43.314,275.023 39.667,8.334 	"/>
</g>
</svg>
