<?xml version="1.0" encoding="utf-8"?>
<!-- Generator: Adobe Illustrator 16.0.0, SVG Export Plug-In . SVG Version: 6.00 Build 0)  -->
<!DOCTYPE svg PUBLIC "-//W3C//DTD SVG 1.1 Tiny//EN" "http://www.w3.org/Graphics/SVG/1.1/DTD/svg11-tiny.dtd">
<svg version="1.1" baseProfile="tiny" id="Layer_1" xmlns="http://www.w3.org/2000/svg" xmlns:xlink="http://www.w3.org/1999/xlink"
	 x="0px" y="0px" width="60px" height="20px" viewBox="0 0 60 20" overflow="scroll" xml:space="preserve">
<polygon fill="#00F9F9" points="20,10 10,0 0,10 0,20 10,10 20,20 "/>
<polygon fill="#00F9F9" points="40,10 30,0 20,10 20,20 30,10 40,20 "/>
<polygon fill="#00F9F9" points="60,10 50,0 40,10 40,20 50,10 60,20 "/>
</svg>
