<?xml version="1.0" encoding="utf-8"?>
<!-- Generator: Adobe Illustrator 16.0.0, SVG Export Plug-In . SVG Version: 6.00 Build 0)  -->
<!DOCTYPE svg PUBLIC "-//W3C//DTD SVG 1.1//EN" "http://www.w3.org/Graphics/SVG/1.1/DTD/svg11.dtd">
<svg version="1.1" id="Layer_1" xmlns="http://www.w3.org/2000/svg" xmlns:xlink="http://www.w3.org/1999/xlink" x="0px" y="0px"
	 width="460px" height="460px" viewBox="0 0 460 460" enable-background="new 0 0 460 460" xml:space="preserve">
    <style type="text/css">
        #layer_lang_en {
            fill: #00000;
        }
        #layer_lang_en:hover{ 
            color: white;
        }
    </style>
	<rect x="-2.5" y="-5.168"  stroke-miterlimit="10" width="465" height="465" id="layer_lang_en" />
    <rect x="129.5" y="174.275" fill="none" width="282" height="219" />
    <text transform="matrix(1 0 0 1 129.5 267.873)" fill="#FFFFFF" font-family="'Niamey'" font-size="130">EN</text>
    
</svg>
